%YAML 1.1
%TAG !u! tag:unity3d.com,2011:
--- !u!114 &11400000
MonoBehaviour:
  m_ObjectHideFlags: 0
  m_CorrespondingSourceObject: {fileID: 0}
  m_PrefabInstance: {fileID: 0}
  m_PrefabAsset: {fileID: 0}
  m_GameObject: {fileID: 0}
  m_Enabled: 1
  m_EditorHideFlags: 0
  m_Script: {fileID: 11500000, guid: 96e79cb502300664895966d4f22faaf3, type: 3}
  m_Name: NPC Default Shirt
  m_EditorClassIdentifier: 
  name: New Item
  icon: {fileID: 0}
  isDefaultItem: 0
  equipSlot: 1
  mesh: {fileID: 6106595714136920076, guid: e39611675aa7e9342907c2c60d122d7c, type: 3}
  coveredMeshRegion: 
  armorModifier: 0
  damageModifier: 0
