%YAML 1.1
%TAG !u! tag:unity3d.com,2011:
--- !u!114 &11400000
MonoBehaviour:
  m_ObjectHideFlags: 0
  m_CorrespondingSourceObject: {fileID: 0}
  m_PrefabInstance: {fileID: 0}
  m_PrefabAsset: {fileID: 0}
  m_GameObject: {fileID: 0}
  m_Enabled: 1
  m_EditorHideFlags: 0
  m_Script: {fileID: 11500000, guid: 96e79cb502300664895966d4f22faaf3, type: 3}
  m_Name: Platebody
  m_EditorClassIdentifier: 
  name: Platebody
  icon: {fileID: 21300000, guid: 78e93ea7dce8815438f61fbde1584259, type: 3}
  isDefaultItem: 0
  equipSlot: 1
  mesh: {fileID: 3578242482448813043, guid: 3cae39e68f1c9c647aee8e43d6343eb7, type: 3}
  coveredMeshRegion: 0100000002000000
  armorModifier: 3
  damageModifier: 1
