%YAML 1.1
%TAG !u! tag:unity3d.com,2011:
--- !u!114 &11400000
MonoBehaviour:
  m_ObjectHideFlags: 0
  m_CorrespondingSourceObject: {fileID: 0}
  m_PrefabInstance: {fileID: 0}
  m_PrefabAsset: {fileID: 0}
  m_GameObject: {fileID: 0}
  m_Enabled: 1
  m_EditorHideFlags: 0
  m_Script: {fileID: 11500000, guid: 96e79cb502300664895966d4f22faaf3, type: 3}
  m_Name: Shield
  m_EditorClassIdentifier: 
  name: Shield
  icon: {fileID: 21300000, guid: 3f61c801b8a636c44a7f90310c24f1cc, type: 3}
  isDefaultItem: 0
  equipSlot: 4
  mesh: {fileID: 2487383349724263893, guid: 25ad730b64ad2a946b117aeba81742ca, type: 3}
  coveredMeshRegion: 
  armorModifier: 4
  damageModifier: 0
